…
Steps 1 & 2 from Procedure:

prep_interval() takes in a workflow (model specification + pre-processing recipe14) along with a training dataset, and outputs a named list containing bootstrapped model fits + prepped recipes (model_uncertainty) and the resulting residuals from cross-validation (sample_uncertainty).

# load custom functions `prep_interval()` and ``predict_interval()`
devtools::source_gist("https://gist.github.com/brshallo/3db2cd25172899f91b196a90d5980690")

set.seed(1234)
prepped_for_interval <- prep_interval(lm_rec_mod, ames_train, n_boot = 200)

prepped_for_interval

## $model_uncertainty
## # A tibble: 200 x 2
##    fit      recipe  
##    <list>   <list>  
##  1 <fit[+]> <recipe>
##  2 <fit[+]> <recipe>
##  3 <fit[+]> <recipe>
##  4 <fit[+]> <recipe>
##  5 <fit[+]> <recipe>
##  6 <fit[+]> <recipe>
##  7 <fit[+]> <recipe>
##  8 <fit[+]> <recipe>
##  9 <fit[+]> <recipe>
## 10 <fit[+]> <recipe>
## # ... with 190 more rows
## 
## $sample_uncertainty
## # A tibble: 2,199 x 1
##      .resid
##       <dbl>
##  1 -0.0319 
##  2  0.00353
##  3 -0.0219 
##  4 -0.165  
##  5  0.00206
##  6 -0.0401 
##  7 -0.0159 
##  8 -0.0626 
##  9  0.0958 
## 10 -0.0712 
## # ... with 2,189 more rows
…
