Tidy 2-way Column Combinations - Bryan's website
…
See Pivot and then summarise for a nearly identical approach with ith just an altered order of steps. Also see Nested tibbles for how you could create a list-column of tibbles8 rather than vectors.

II. Expand combinations

You can then use tidyr::nesting() within tidyr::expand() to make all 2-way combinations.

df_lists_comb <- expand(df_lists,
                        nesting(var, vector),
                        nesting(var2 = var, vector2 = vector)) %>% 
  print()

## # A tibble: 100 x 4
##    var        vector        var2           vector2      
##    <chr>      <list>        <chr>          <list>       
##  1 Fireplaces <dbl [2,930]> Fireplaces     <dbl [2,930]>
##  2 Fireplaces <dbl [2,930]> First_Flr_SF   <dbl [2,930]>
##  3 Fireplaces <dbl [2,930]> Full_Bath      <dbl [2,930]>
##  4 Fireplaces <dbl [2,930]> Garage_Area    <dbl [2,930]>
##  5 Fireplaces <dbl [2,930]> Garage_Cars    <dbl [2,930]>
##  6 Fireplaces <dbl [2,930]> Gr_Liv_Area    <dbl [2,930]>
##  7 Fireplaces <dbl [2,930]> Total_Bsmt_SF  <dbl [2,930]>
##  8 Fireplaces <dbl [2,930]> TotRms_AbvGrd  <dbl [2,930]>
##  9 Fireplaces <dbl [2,930]> Year_Built     <dbl [2,930]>
## 10 Fireplaces <dbl [2,930]> Year_Remod_Add <dbl [2,930]>
## # ... with 90 more rows

See [Expand via joins] for an alternative approach using the dplyr::*_join() operations.

III. Filter redundancies

Filter-out redundant columns and arrange / nicen-up the column order.

df_lists_comb <- df_lists_comb %>% 
  filter(!(var == var2)) %>% 
  arrange(var, var2) %>% 
  select(contains("var"), everything()) %>% 
  mutate(vars = paste0(var, ".", var2)) %>% 
  print()

## # A tibble: 90 x 5
##    var         var2          vector       vector2     vars                 
##    <chr>       <chr>         <list>       <list>      <chr>                
##  1 Fireplaces  First_Flr_SF  <dbl [2,930~ <dbl [2,93~ Fireplaces.First_Flr~
##  2 Fireplaces  Full_Bath     <dbl [2,930~ <dbl [2,93~ Fireplaces.Full_Bath 
##  3 Fireplaces  Garage_Area   <dbl [2,930~ <dbl [2,93~ Fireplaces.Garage_Ar~
##  4 Fireplaces  Garage_Cars   <dbl [2,930~ <dbl [2,93~ Fireplaces.Garage_Ca~
##  5 Fireplaces  Gr_Liv_Area   <dbl [2,930~ <dbl [2,93~ Fireplaces.Gr_Liv_Ar~
##  6 Fireplaces  Total_Bsmt_SF <dbl [2,930~ <dbl [2,93~ Fireplaces.Total_Bsm~
##  7 Fireplaces  TotRms_AbvGrd <dbl [2,930~ <dbl [2,93~ Fireplaces.TotRms_Ab~
##  8 Fireplaces  Year_Built    <dbl [2,930~ <dbl [2,93~ Fireplaces.Year_Built
##  9 Fireplaces  Year_Remod_A~ <dbl [2,930~ <dbl [2,93~ Fireplaces.Year_Remo~
## 10 First_Flr_~ Fireplaces    <dbl [2,930~ <dbl [2,93~ First_Flr_SF.Firepla~
## # ... with 80 more rows
…
