…
rates_lookup <- create_rates_lookup(transactions, 
                                    local_currencies, 
                                    sales_date)

rates_lookup

## # A tibble: 738 x 4
##    from  to    date        rate
##    <chr> <chr> <date>     <dbl>
##  1 CAD   USD   2021-09-01 0.793
##  2 CAD   USD   2021-09-02 0.796
##  3 CAD   USD   2021-09-03 0.799
##  4 CAD   USD   2021-09-04 0.798
##  5 CAD   USD   2021-09-05 0.798
##  6 CAD   USD   2021-09-06 0.798
##  7 CAD   USD   2021-09-07 0.790
##  8 CAD   USD   2021-09-08 0.788
##  9 CAD   USD   2021-09-09 0.790
## 10 CAD   USD   2021-09-10 0.788
## # ... with 728 more rows
…
Convert Prices

Now let’s convert our original currencies to USD.

transactions_converted <- transactions %>%
  mutate(list_price_usd = 
           convert_currency(list_price,
                            sales_date,
                            from = local_currencies,
                            to = "USD"))

transactions_converted

## # A tibble: 10,000 x 4
##    sales_date local_currencies list_price list_price_usd
##    <date>     <chr>                 <dbl>          <dbl>
##  1 2021-09-01 CAD                  1002.         794.   
##  2 2021-09-01 CAD                   885.         701.   
##  3 2021-09-01 JPY                   284.           2.58 
##  4 2021-09-01 JPY                    83.6          0.760
##  5 2021-09-01 CAD                  2185.        1732.   
##  6 2021-09-01 EUR                   468.         554.   
##  7 2021-09-01 EUR                   668.         791.   
##  8 2021-09-01 EUR                  1064.        1260.   
##  9 2021-09-01 JPY                  1922.          17.5  
## 10 2021-09-01 JPY                  3334.          30.3  
## # ... with 9,990 more rows

Note that it is possible to then convert from “USD” to any currency type that is in the to field of our lookup table. Below I’ll convert list_price_usd to currencies other than USD4, list_price_converted will represent the value of list_price converted based on local_currencies and new_currencies (i.e. from and to respectively).

transactions_converted %>%
  mutate(new_currencies = sample(c("CAD", "EUR", "JPY"), replace = TRUE, sim_count)) %>%
  mutate(list_price_converted =
           convert_currency(list_price_usd,
                            sales_date,
                            from = "USD",
                            to = new_currencies))

## # A tibble: 10,000 x 6
##    sales_date local_currencies list_price list_price_usd new_currencies
##    <date>     <chr>                 <dbl>          <dbl> <chr>         
##  1 2021-09-01 CAD                  1002.         794.    JPY           
##  2 2021-09-01 CAD                   885.         701.    EUR           
##  3 2021-09-01 JPY                   284.           2.58  CAD           
##  4 2021-09-01 JPY                    83.6          0.760 EUR           
##  5 2021-09-01 CAD                  2185.        1732.    CAD           
##  6 2021-09-01 EUR                   468.         554.    CAD           
##  7 2021-09-01 EUR                   668.         791.    EUR           
##  8 2021-09-01 EUR                  1064.        1260.    JPY           
##  9 2021-09-01 JPY                  1922.          17.5   CAD           
## 10 2021-09-01 JPY                  3334.          30.3   EUR           
## # ... with 9,990 more rows, and 1 more variable: list_price_converted <dbl>
…
