…
library(dplyr)
library(purrr)
library(stringr)
library(funspotr)

library(dplyr)
library(purrr)
library(stringr)
library(funspotr)

brshallo_gists <- funspotr::github_gists("brshallo")

brshallo_gists

## # A tibble: 97 x 2
##    contents                                  urls                               
##    <chr>                                     <chr>                              
##  1 funspotr-gists-cmparlettpelleriti-ex.R    https://gist.githubusercontent.com~
##  2 custom-ggplot-and-labels.R                https://gist.githubusercontent.com~
##  3 stratified-sampling-parameter-estimates.R https://gist.githubusercontent.com~
##  4 grouped-nested-t-test.md                  https://gist.githubusercontent.com~
##  5 benchmark-cdf-methods.md                  https://gist.githubusercontent.com~
##  6 split-group-nest-join.md                  https://gist.githubusercontent.com~
##  7 weighted-t-test-tidied.md                 https://gist.githubusercontent.com~
##  8 cdf_density.R                             https://gist.githubusercontent.com~
##  9 if_all-if_any-examples.R                  https://gist.githubusercontent.com~
## 10 weighted-grouped-bootstrap-simulation.md  https://gist.githubusercontent.com~
## # ... with 87 more rows
Parsing R files

funspotr is already set-up to parse all the unique functions and packages from R or Rmd files.

r_gists <- brshallo_gists %>% 
  filter(funspotr:::str_detect_r_rmd(contents))

r_gists_parsed <- funspotr::github_spot_funs(custom_urls = r_gists)

r_gists_unnested <- r_gists_parsed %>% 
  funspotr::unnest_github_results()

r_gists_unnested

## # A tibble: 474 x 5
##    funs                  pkgs      in_multiple_pkgs contents      urls          
##    <chr>                 <chr>     <lgl>            <chr>         <chr>         
##  1 library               base      FALSE            funspotr-gis~ https://gist.~
##  2 github_gists          funspotr  FALSE            funspotr-gis~ https://gist.~
##  3 filter                dplyr     TRUE             funspotr-gis~ https://gist.~
##  4 str_detect_r_rmd      (unknown) FALSE            funspotr-gis~ https://gist.~
##  5 github_spot_funs      funspotr  FALSE            funspotr-gis~ https://gist.~
##  6 unnest_github_results funspotr  FALSE            funspotr-gis~ https://gist.~
##  7 library               base      FALSE            custom-ggplo~ https://gist.~
##  8 ggplot                ggplot    FALSE            custom-ggplo~ https://gist.~
##  9 aes                   ggplot    FALSE            custom-ggplo~ https://gist.~
## 10 geom_point            ggplot    FALSE            custom-ggplo~ https://gist.~
## # ... with 464 more rows
…
md_gists <- brshallo_gists %>% 
  filter(!funspotr:::str_detect_r_rmd(contents))

md_gists_local <- md_gists %>% 
  mutate(urls = map_chr(urls, extract_code_md))

md_gists_parsed <- funspotr::github_spot_funs(custom_urls = md_gists_local)

md_gists_unnested <- md_gists_parsed %>% 
  funspotr::unnest_github_results()

md_gists_unnested

## # A tibble: 1,061 x 5
##    funs           pkgs    in_multiple_pkgs contents                 urls        
##    <chr>          <chr>   <lgl>            <chr>                    <chr>       
##  1 library        base    FALSE            grouped-nested-t-test.md "C:\\Users\~
##  2 require        base    FALSE            grouped-nested-t-test.md "C:\\Users\~
##  3 install_github remotes FALSE            grouped-nested-t-test.md "C:\\Users\~
##  4 na.omit        stats   FALSE            grouped-nested-t-test.md "C:\\Users\~
##  5 t.test         stats   FALSE            grouped-nested-t-test.md "C:\\Users\~
##  6 tidy           broom   FALSE            grouped-nested-t-test.md "C:\\Users\~
##  7 pull           dplyr   FALSE            grouped-nested-t-test.md "C:\\Users\~
##  8 group_by       dplyr   FALSE            grouped-nested-t-test.md "C:\\Users\~
##  9 summarise      dplyr   FALSE            grouped-nested-t-test.md "C:\\Users\~
## 10 list           base    FALSE            grouped-nested-t-test.md "C:\\Users\~
## # ... with 1,051 more rows
…
