…
##  6 29916355            151195192~ 2022-04-07 06:20:03 jimjam_slam "@brsh~ Twitt~
##  7 29916355            151189984~ 2022-04-07 02:53:06 jimjam_slam "@mdne~ Twitt~
##  8 3089027769          151189179~ 2022-04-07 02:21:09 gyp_casino  "@mdne~ Twitt~
##  9 15772978            151132777~ 2022-04-05 12:59:55 jessicagar~ "@brsh~ Twitt~
## 10 144592995           151129000~ 2022-04-05 10:29:49 Rbloggers   "R Acc~ r-blo~
## # ... with 85 more variables: display_text_width <dbl>,
## #   reply_to_status_id <chr>, reply_to_user_id <chr>,
## #   reply_to_screen_name <chr>, is_quote <lgl>, is_retweet <lgl>,
## #   favorite_count <int>, retweet_count <int>, quote_count <int>,
## #   reply_count <int>, hashtags <list>, symbols <list>, urls_url <list>,
## #   urls_t.co <list>, urls_expanded_url <list>, media_url <list>,
## #   media_t.co <list>, media_expanded_url <list>, media_type <list>, ...
## 
## $favoriters
## # A tibble: 90 x 4
##    liked_status_id     user_id            name           username       
##    <chr>               <chr>              <chr>          <chr>          
##  1 1512295676004093955 117241741          Brett J. Gall  brettjgall     
##  2 1512295676004093955 2724597409         Peter Ellis    ellis2013nz    
##  3 1512294950905409543 274123666          Kristen Downs  KristenDDowns  
##  4 1512293864517750790 3656879234         <U+5F20><U+4EAE>           psychelzh      
##  5 1512293864517750790 703843771419484160 Ayush Patel    ayushbipinpatel
##  6 1512293864517750790 419185498          Kevin Gilds    Kevin_Gilds    
##  7 1512293864517750790 127357236          Juan LB        Juan_FLB       
##  8 1512293864517750790 49451947           Luis Remiro    LuisMRemiro    
##  9 1512293864517750790 253175044          Nicholas Viau  nicholasviau   
## 10 1512293864517750790 2202983986         Stefania Klayn Ettti_20       
## # ... with 80 more rows
## 
## $references
…
