Tidy Pairwise Operations - Bryan's website
…
At which point your data is in fundamentally the same form as was created in the previous code chunk (at least for if we only care about computing summary metrics that don’t require vectors of equal length13) so you can move onto II. Expand combinations.

If the variables needed for your combinations of interest are across both rows and columns, you may want to use both pivot_longer() and group_by() steps and may need to make a few small modifications.

II. Expand combinations

I then use tidyr::nesting() within tidyr::expand() to make all 2-way combinations of our rows.

df_lists_comb <- expand(df_lists,
                        nesting(var, vector),
                        nesting(var2 = var, vector2 = vector)) %>% 
  print()

## # A tibble: 100 x 4
##    var        vector        var2           vector2      
##    <chr>      <list>        <chr>          <list>       
##  1 Fireplaces <dbl [2,930]> Fireplaces     <dbl [2,930]>
##  2 Fireplaces <dbl [2,930]> First_Flr_SF   <dbl [2,930]>
##  3 Fireplaces <dbl [2,930]> Full_Bath      <dbl [2,930]>
##  4 Fireplaces <dbl [2,930]> Garage_Area    <dbl [2,930]>
##  5 Fireplaces <dbl [2,930]> Garage_Cars    <dbl [2,930]>
##  6 Fireplaces <dbl [2,930]> Gr_Liv_Area    <dbl [2,930]>
##  7 Fireplaces <dbl [2,930]> Total_Bsmt_SF  <dbl [2,930]>
##  8 Fireplaces <dbl [2,930]> TotRms_AbvGrd  <dbl [2,930]>
##  9 Fireplaces <dbl [2,930]> Year_Built     <dbl [2,930]>
## 10 Fireplaces <dbl [2,930]> Year_Remod_Add <dbl [2,930]>
## # ... with 90 more rows
…
You could make a strong case that this step should be after III. Filter redundancies14. However putting it beforehand makes the required code easier to write and to read.

III. Filter redundancies

Filter-out redundant columns, sort the rows, better organize the columns.

df_lists_comb <- df_lists_comb %>% 
  filter(var != var2) %>% 
  arrange(var, var2) %>% 
  mutate(vars = paste0(var, ".", var2)) %>% 
  select(contains("var"), everything()) %>% 
  print()

## # A tibble: 90 x 5
##    var          var2           vars                    vector       vector2     
##    <chr>        <chr>          <chr>                   <list>       <list>      
##  1 Fireplaces   First_Flr_SF   Fireplaces.First_Flr_SF <dbl [2,930~ <dbl [2,930~
##  2 Fireplaces   Full_Bath      Fireplaces.Full_Bath    <dbl [2,930~ <dbl [2,930~
##  3 Fireplaces   Garage_Area    Fireplaces.Garage_Area  <dbl [2,930~ <dbl [2,930~
##  4 Fireplaces   Garage_Cars    Fireplaces.Garage_Cars  <dbl [2,930~ <dbl [2,930~
##  5 Fireplaces   Gr_Liv_Area    Fireplaces.Gr_Liv_Area  <dbl [2,930~ <dbl [2,930~
##  6 Fireplaces   Total_Bsmt_SF  Fireplaces.Total_Bsmt_~ <dbl [2,930~ <dbl [2,930~
##  7 Fireplaces   TotRms_AbvGrd  Fireplaces.TotRms_AbvG~ <dbl [2,930~ <dbl [2,930~
##  8 Fireplaces   Year_Built     Fireplaces.Year_Built   <dbl [2,930~ <dbl [2,930~
##  9 Fireplaces   Year_Remod_Add Fireplaces.Year_Remod_~ <dbl [2,930~ <dbl [2,930~
## 10 First_Flr_SF Fireplaces     First_Flr_SF.Fireplaces <dbl [2,930~ <dbl [2,930~
## # ... with 80 more rows
…
IV. Map function(s)

Each row of your dataframe now contains the relevant combinations of variables and is ready to have any arbitrary function(s) mapped across them.

Example with summary statistic16:

For example, let’s say we want to compute the p-value of the correlation coefficient for each pair17.

pairs_cor_pvalues <- df_lists_comb_as %>% 
  mutate(cor_pvalue = map2(vector, vector2, cor.test) %>% map_dbl("p.value"),
         vars = fct_reorder(vars, -cor_pvalue)) %>% 
  arrange(cor_pvalue) %>% 
  print()

## # A tibble: 45 x 6
##    var        var2         vars                vector     vector2     cor_pvalue
##    <chr>      <chr>        <fct>               <list>     <list>           <dbl>
##  1 First_Flr~ Total_Bsmt_~ First_Flr_SF.Total~ <dbl [2,9~ <dbl [2,93~  0.       
##  2 Full_Bath  Gr_Liv_Area  Full_Bath.Gr_Liv_A~ <dbl [2,9~ <dbl [2,93~  0.       
##  3 Garage_Ar~ Garage_Cars  Garage_Area.Garage~ <dbl [2,9~ <dbl [2,93~  0.       
##  4 Gr_Liv_Ar~ TotRms_AbvG~ Gr_Liv_Area.TotRms~ <dbl [2,9~ <dbl [2,93~  0.       
##  5 Year_Built Year_Remod_~ Year_Built.Year_Re~ <dbl [2,9~ <dbl [2,93~  7.85e-301
##  6 First_Flr~ Gr_Liv_Area  First_Flr_SF.Gr_Li~ <dbl [2,9~ <dbl [2,93~  8.17e-244
##  7 Garage_Ca~ Year_Built   Garage_Cars.Year_B~ <dbl [2,9~ <dbl [2,93~  1.57e-219
##  8 Full_Bath  TotRms_AbvG~ Full_Bath.TotRms_A~ <dbl [2,9~ <dbl [2,93~  1.24e-210
##  9 First_Flr~ Garage_Area  First_Flr_SF.Garag~ <dbl [2,9~ <dbl [2,93~  8.16e-178
## 10 Garage_Ca~ Gr_Liv_Area  Garage_Cars.Gr_Liv~ <dbl [2,9~ <dbl [2,93~  4.80e-175
## # ... with 35 more rows
…
